{
  "ID": "069b4f09-0ec2-49f9-be75-c5e9732fef97",
  "Version": "3.10.0.0",
  "Name": "GuiModeSelector",
  "Content": {
    "Content": {
      "Animation": {
        "Duration": 0,
        "Speed": 1.0,
        "Timelines": [],
        "ctype": "TimelineActionData"
      },
      "AnimationList": [],
      "ObjectData": {
        "Tag": 11,
        "Children": [
          {
            "ClipAble": false,
            "ComboBoxIndex": 1,
            "SingleColor": {
              "R": 82,
              "G": 82,
              "B": 82
            },
            "FirstColor": {
              "R": 150,
              "G": 200
            },
            "EndColor": {},
            "ColorVector": {
              "ScaleY": 1.0
            },
            "Scale9Width": 1,
            "Scale9Height": 1,
            "TouchEnable": true,
            "StretchWidthEnable": true,
            "StretchHeightEnable": true,
            "AnchorPoint": {},
            "Position": {
              "X": 0.0,
              "Y": 0.0
            },
            "Scale": {
              "ScaleX": 1.0,
              "ScaleY": 1.0
            },
            "CColor": {},
            "IconVisible": false,
            "PrePosition": {
              "X": 0.0,
              "Y": 0.0
            },
            "PreSize": {
              "X": 1.0,
              "Y": 1.0
            },
            "HorizontalEdge": "BothEdge",
            "VerticalEdge": "BothEdge",
            "Tag": 17,
            "ActionTag": 66534736,
            "Size": {
              "X": 1920.0,
              "Y": 1080.0
            },
            "Name": "Panel_1",
            "ctype": "PanelObjectData"
          },
          {
            "IsCustomSize": true,
            "FontSize": 72,
            "LabelText": "Shooting Mayhem   ",
            "FontResource": {
              "Type": "Normal",
              "Path": "font/Nunito-Black.ttf",
              "Plist": ""
            },
            "HorizontalAlignmentType": "HT_Right",
            "VerticalAlignmentType": "VT_Center",
            "OutlineSize": 5,
            "OutlineColor": {
              "R": 122,
              "G": 73,
              "B": 17
            },
            "OutlineEnabled": true,
            "ShadowColor": {
              "R": 110,
              "G": 110,
              "B": 110
            },
            "ShadowOffsetX": 2.0,
            "ShadowOffsetY": -2.0,
            "AnchorPoint": {
              "ScaleX": 1.0,
              "ScaleY": 1.0
            },
            "Position": {
              "X": 1920.0,
              "Y": 1080.0
            },
            "Scale": {
              "ScaleX": 1.0,
              "ScaleY": 1.0
            },
            "CColor": {
              "R": 219,
              "G": 213,
              "B": 0
            },
            "IconVisible": false,
            "PrePosition": {
              "X": 1.0,
              "Y": 1.0
            },
            "PreSize": {
              "X": 0.4167,
              "Y": 0.0944
            },
            "HorizontalEdge": "RightEdge",
            "VerticalEdge": "TopEdge",
            "LeftMargin": 1120.0,
            "BottomMargin": 978.0,
            "Tag": 13,
            "ActionTag": -905071568,
            "Size": {
              "X": 800.0,
              "Y": 102.0
            },
            "Name": "lbTitle",
            "ctype": "TextObjectData"
          },
          {
            "IsCustomSize": true,
            "FontSize": 72,
            "LabelText": "Game Mode",
            "FontResource": {
              "Type": "Normal",
              "Path": "font/Nunito-Black.ttf",
              "Plist": ""
            },
            "HorizontalAlignmentType": "HT_Center",
            "VerticalAlignmentType": "VT_Center",
            "OutlineSize": 5,
            "OutlineColor": {
              "R": 122,
              "G": 73,
              "B": 17
            },
            "OutlineEnabled": true,
            "ShadowColor": {
              "R": 110,
              "G": 110,
              "B": 110
            },
            "ShadowOffsetX": 2.0,
            "ShadowOffsetY": -2.0,
            "AnchorPoint": {
              "ScaleX": 0.5,
              "ScaleY": 1.0
            },
            "Position": {
              "X": 400.0,
              "Y": 1080.0
            },
            "Scale": {
              "ScaleX": 1.0,
              "ScaleY": 1.0
            },
            "CColor": {
              "R": 219,
              "G": 213,
              "B": 0
            },
            "IconVisible": false,
            "PrePosition": {
              "X": 0.2083,
              "Y": 1.0
            },
            "PreSize": {
              "X": 0.4167,
              "Y": 0.0944
            },
            "HorizontalEdge": "LeftEdge",
            "VerticalEdge": "TopEdge",
            "RightMargin": 1120.0,
            "BottomMargin": 978.0,
            "Tag": 25,
            "ActionTag": 102997474,
            "Size": {
              "X": 800.0,
              "Y": 102.0
            },
            "Name": "lbModeSelect",
            "ctype": "TextObjectData"
          },
          {
            "FontSize": 48,
            "ButtonText": "Gun Game",
            "FontResource": {
              "Type": "Normal",
              "Path": "font/Nunito-Black.ttf",
              "Plist": ""
            },
            "TextColor": {},
            "DisabledFileData": {
              "Type": "Default",
              "Path": "Default/Button_Disable.png",
              "Plist": ""
            },
            "Scale9Enable": true,
            "Scale9OriginX": 15,
            "Scale9OriginY": 6,
            "Scale9Width": 299,
            "Scale9Height": 53,
            "OutlineColor": {
              "G": 0,
              "B": 0
            },
            "ShadowColor": {
              "R": 110,
              "G": 110,
              "B": 110
            },
            "ShadowOffsetX": 2.0,
            "ShadowOffsetY": -2.0,
            "TouchEnable": true,
            "AnchorPoint": {
              "ScaleX": 0.5,
              "ScaleY": 0.5
            },
            "Position": {
              "X": 400.0,
              "Y": 636.0
            },
            "Scale": {
              "ScaleX": 1.0,
              "ScaleY": 1.0
            },
            "CColor": {},
            "IconVisible": false,
            "PrePosition": {
              "X": 0.2083,
              "Y": 0.5889
            },
            "PreSize": {
              "X": 0.4167,
              "Y": 0.0926
            },
            "RightMargin": 1120.0,
            "TopMargin": 394.0,
            "BottomMargin": 586.0,
            "Tag": 14,
            "ActionTag": -793133183,
            "Size": {
              "X": 800.0,
              "Y": 100.0
            },
            "Name": "btnGunGame",
            "ctype": "ButtonObjectData"
          },
          {
            "FontSize": 48,
            "ButtonText": "Last Man Standing",
            "FontResource": {
              "Type": "Normal",
              "Path": "font/Nunito-Black.ttf",
              "Plist": ""
            },
            "TextColor": {},
            "DisabledFileData": {
              "Type": "Default",
              "Path": "Default/Button_Disable.png",
              "Plist": ""
            },
            "Scale9Enable": true,
            "Scale9OriginX": 15,
            "Scale9OriginY": 6,
            "Scale9Width": 401,
            "Scale9Height": 53,
            "OutlineColor": {
              "G": 0,
              "B": 0
            },
            "ShadowColor": {
              "R": 110,
              "G": 110,
              "B": 110
            },
            "ShadowOffsetX": 2.0,
            "ShadowOffsetY": -2.0,
            "TouchEnable": true,
            "AnchorPoint": {
              "ScaleX": 0.5,
              "ScaleY": 0.5
            },
            "Position": {
              "X": 400.0,
              "Y": 876.0
            },
            "Scale": {
              "ScaleX": 1.0,
              "ScaleY": 1.0
            },
            "CColor": {},
            "IconVisible": false,
            "PrePosition": {
              "X": 0.2083,
              "Y": 0.8111
            },
            "PreSize": {
              "X": 0.4167,
              "Y": 0.0926
            },
            "RightMargin": 1120.0,
            "TopMargin": 154.0,
            "BottomMargin": 826.0,
            "Tag": 15,
            "ActionTag": 1016379953,
            "Size": {
              "X": 800.0,
              "Y": 100.0
            },
            "Name": "btnLastManStanding",
            "ctype": "ButtonObjectData"
          },
          {
            "FontSize": 48,
            "ButtonText": "Last Team Standing",
            "FontResource": {
              "Type": "Normal",
              "Path": "font/Nunito-Black.ttf",
              "Plist": ""
            },
            "TextColor": {},
            "DisabledFileData": {
              "Type": "Default",
              "Path": "Default/Button_Disable.png",
              "Plist": ""
            },
            "Scale9Enable": true,
            "Scale9OriginX": 15,
            "Scale9OriginY": 6,
            "Scale9Width": 431,
            "Scale9Height": 53,
            "OutlineColor": {
              "G": 0,
              "B": 0
            },
            "ShadowColor": {
              "R": 110,
              "G": 110,
              "B": 110
            },
            "ShadowOffsetX": 2.0,
            "ShadowOffsetY": -2.0,
            "TouchEnable": true,
            "AnchorPoint": {
              "ScaleX": 0.5,
              "ScaleY": 0.5
            },
            "Position": {
              "X": 400.0,
              "Y": 756.0
            },
            "Scale": {
              "ScaleX": 1.0,
              "ScaleY": 1.0
            },
            "CColor": {},
            "IconVisible": false,
            "PrePosition": {
              "X": 0.2083,
              "Y": 0.7
            },
            "PreSize": {
              "X": 0.4167,
              "Y": 0.0926
            },
            "RightMargin": 1120.0,
            "TopMargin": 274.0,
            "BottomMargin": 706.0,
            "Tag": 16,
            "ActionTag": -2044118796,
            "Size": {
              "X": 800.0,
              "Y": 100.0
            },
            "Name": "btnLastTeamStanding",
            "ctype": "ButtonObjectData"
          },
          {
            "FileData": {
              "Type": "Normal",
              "Path": "sprites/character/cyan_shooter.png",
              "Plist": ""
            },
            "BlendFunc": {
              "Src": 1,
              "Dst": 771
            },
            "AnchorPoint": {
              "ScaleX": 0.5,
              "ScaleY": 0.5
            },
            "Position": {
              "X": 1447.4773,
              "Y": 368.7613
            },
            "Scale": {
              "ScaleX": -5.0,
              "ScaleY": 5.0
            },
            "CColor": {},
            "IconVisible": false,
            "PrePosition": {
              "X": 0.7539,
              "Y": 0.3414
            },
            "PreSize": {
              "X": 0.0344,
              "Y": 0.0667
            },
            "LeftMargin": 1414.4773,
            "RightMargin": 439.5227,
            "TopMargin": 675.2387,
            "BottomMargin": 332.7613,
            "Tag": 19,
            "Children": [
              {
                "FileData": {
                  "Type": "Normal",
                  "Path": "sprites/gun/gun_desert_eagle.png",
                  "Plist": ""
                },
                "BlendFunc": {
                  "Src": 1,
                  "Dst": 771
                },
                "AnchorPoint": {
                  "ScaleX": 0.5,
                  "ScaleY": 0.5
                },
                "Position": {
                  "X": 80.9338,
                  "Y": 33.8777
                },
                "Scale": {
                  "ScaleX": 1.0,
                  "ScaleY": 1.0
                },
                "CColor": {},
                "IconVisible": false,
                "PrePosition": {
                  "X": 1.2263,
                  "Y": 0.4705
                },
                "PreSize": {
                  "X": 0.9545,
                  "Y": 0.5
                },
                "LeftMargin": 49.4338,
                "RightMargin": -46.4338,
                "TopMargin": 20.1223,
                "BottomMargin": 15.8777,
                "Tag": 23,
                "ActionTag": 400170503,
                "Size": {
                  "X": 63.0,
                  "Y": 36.0
                },
                "Name": "Sprite_6",
                "ctype": "SpriteObjectData"
              }
            ],
            "ActionTag": -1313616928,
            "Size": {
              "X": 66.0,
              "Y": 72.0
            },
            "Name": "blue_shooter_1_0",
            "ctype": "SpriteObjectData"
          },
          {
            "FileData": {
              "Type": "Normal",
              "Path": "sprites/character/blue_shooter.png",
              "Plist": ""
            },
            "BlendFunc": {
              "Src": 1,
              "Dst": 771
            },
            "AnchorPoint": {
              "ScaleX": 0.5,
              "ScaleY": 0.5
            },
            "Position": {
              "X": 1701.0084,
              "Y": 242.3252
            },
            "Scale": {
              "ScaleX": -5.0,
              "ScaleY": 5.0
            },
            "CColor": {},
            "IconVisible": false,
            "PrePosition": {
              "X": 0.8859,
              "Y": 0.2244
            },
            "PreSize": {
              "X": 0.0344,
              "Y": 0.0667
            },
            "LeftMargin": 1668.0084,
            "RightMargin": 185.9916,
            "TopMargin": 801.6748,
            "BottomMargin": 206.3252,
            "Tag": 18,
            "Children": [
              {
                "FileData": {
                  "Type": "Normal",
                  "Path": "sprites/grenade/grenade.png",
                  "Plist": ""
                },
                "BlendFunc": {
                  "Src": 1,
                  "Dst": 771
                },
                "AnchorPoint": {
                  "ScaleX": 0.5,
                  "ScaleY": 0.5
                },
                "Position": {
                  "X": 14.0999,
                  "Y": 127.5046
                },
                "Scale": {
                  "ScaleX": 1.0,
                  "ScaleY": 1.0
                },
                "CColor": {},
                "IconVisible": false,
                "PrePosition": {
                  "X": 0.2136,
                  "Y": 1.7709
                },
                "PreSize": {
                  "X": 0.5,
                  "Y": 0.4583
                },
                "LeftMargin": -2.4001,
                "RightMargin": 35.4001,
                "TopMargin": -72.0046,
                "BottomMargin": 111.0046,
                "Tag": 20,
                "ActionTag": 1147131403,
                "Size": {
                  "X": 33.0,
                  "Y": 33.0
                },
                "Name": "spr",
                "ctype": "SpriteObjectData"
              },
              {
                "FileData": {
                  "Type": "Normal",
                  "Path": "sprites/grenade/grenade.png",
                  "Plist": ""
                },
                "BlendFunc": {
                  "Src": 1,
                  "Dst": 771
                },
                "AnchorPoint": {
                  "ScaleX": 0.5,
                  "ScaleY": 0.5
                },
                "Position": {
                  "X": 100.5639,
                  "Y": 130.2081
                },
                "Scale": {
                  "ScaleX": 1.0,
                  "ScaleY": 1.0
                },
                "CColor": {},
                "IconVisible": false,
                "PrePosition": {
                  "X": 1.5237,
                  "Y": 1.8084
                },
                "PreSize": {
                  "X": 0.5,
                  "Y": 0.4583
                },
                "LeftMargin": 84.0639,
                "RightMargin": -51.0639,
                "TopMargin": -74.7081,
                "BottomMargin": 113.7081,
                "Tag": 21,
                "ActionTag": 1125236290,
                "Size": {
                  "X": 33.0,
                  "Y": 33.0
                },
                "Name": "spr",
                "ctype": "SpriteObjectData"
              },
              {
                "FileData": {
                  "Type": "Normal",
                  "Path": "sprites/grenade/grenade.png",
                  "Plist": ""
                },
                "BlendFunc": {
                  "Src": 1,
                  "Dst": 771
                },
                "AnchorPoint": {
                  "ScaleX": 0.5,
                  "ScaleY": 0.5
                },
                "Position": {
                  "X": 59.0402,
                  "Y": 139.5004
                },
                "Scale": {
                  "ScaleX": 1.0,
                  "ScaleY": 1.0
                },
                "CColor": {},
                "IconVisible": false,
                "PrePosition": {
                  "X": 0.8945,
                  "Y": 1.9375
                },
                "PreSize": {
                  "X": 0.5,
                  "Y": 0.4583
                },
                "LeftMargin": 42.5402,
                "RightMargin": -9.5402,
                "TopMargin": -84.0004,
                "BottomMargin": 123.0004,
                "Tag": 24,
                "ActionTag": -2083064795,
                "Size": {
                  "X": 33.0,
                  "Y": 33.0
                },
                "Name": "spr",
                "ctype": "SpriteObjectData"
              },
              {
                "FileData": {
                  "Type": "Normal",
                  "Path": "sprites/gun/gun_awm.png",
                  "Plist": ""
                },
                "BlendFunc": {
                  "Src": 1,
                  "Dst": 771
                },
                "AnchorPoint": {
                  "ScaleX": 0.5,
                  "ScaleY": 0.5
                },
                "Position": {
                  "X": 71.9919,
                  "Y": 30.5851
                },
                "Scale": {
                  "ScaleX": 1.0,
                  "ScaleY": 1.0
                },
                "CColor": {},
                "IconVisible": false,
                "PrePosition": {
                  "X": 1.0908,
                  "Y": 0.4248
                },
                "PreSize": {
                  "X": 2.5,
                  "Y": 0.625
                },
                "LeftMargin": -10.5081,
                "RightMargin": -88.4919,
                "TopMargin": 18.9149,
                "BottomMargin": 8.0851,
                "Tag": 22,
                "ActionTag": 900556269,
                "Size": {
                  "X": 165.0,
                  "Y": 45.0
                },
                "Name": "gun_awm_5",
                "ctype": "SpriteObjectData"
              }
            ],
            "ActionTag": -977036364,
            "Size": {
              "X": 66.0,
              "Y": 72.0
            },
            "Name": "blue_shooter_1",
            "ctype": "SpriteObjectData"
          },
          {
            "FileData": {
              "Type": "Normal",
              "Path": "sprites/character/pinky_shooter.png",
              "Plist": ""
            },
            "BlendFunc": {
              "Src": 1,
              "Dst": 771
            },
            "AnchorPoint": {
              "ScaleX": 0.5,
              "ScaleY": 0.5
            },
            "Position": {
              "X": 1357.9398,
              "Y": 95.8251
            },
            "Scale": {
              "ScaleX": -5.0,
              "ScaleY": 5.0
            },
            "CColor": {},
            "IconVisible": false,
            "PrePosition": {
              "X": 0.7073,
              "Y": 0.0887
            },
            "PreSize": {
              "X": 0.0344,
              "Y": 0.0667
            },
            "LeftMargin": 1324.9398,
            "RightMargin": 529.0602,
            "TopMargin": 948.1749,
            "BottomMargin": 59.8251,
            "Tag": 27,
            "Children": [
              {
                "FileData": {
                  "Type": "Normal",
                  "Path": "sprites/gun/gun_steyr_tmp.png",
                  "Plist": ""
                },
                "BlendFunc": {
                  "Src": 1,
                  "Dst": 771
                },
                "AnchorPoint": {
                  "ScaleX": 0.5,
                  "ScaleY": 0.5
                },
                "Position": {
                  "X": 84.2247,
                  "Y": 28.7024
                },
                "Scale": {
                  "ScaleX": 1.0,
                  "ScaleY": 1.0
                },
                "CColor": {},
                "IconVisible": false,
                "PrePosition": {
                  "X": 1.2761,
                  "Y": 0.3986
                },
                "PreSize": {
                  "X": 1.3182,
                  "Y": 0.5417
                },
                "LeftMargin": 40.7247,
                "RightMargin": -61.7247,
                "TopMargin": 23.7976,
                "BottomMargin": 9.2024,
                "Tag": 31,
                "ActionTag": -2098704705,
                "Size": {
                  "X": 87.0,
                  "Y": 39.0
                },
                "Name": "gun_awm_5",
                "ctype": "SpriteObjectData"
              }
            ],
            "ActionTag": -789068354,
            "Size": {
              "X": 66.0,
              "Y": 72.0
            },
            "Name": "blue_shooter_1_1",
            "ctype": "SpriteObjectData"
          },
          {
            "FontSize": 48,
            "ButtonText": "Back To Lobby",
            "FontResource": {
              "Type": "Normal",
              "Path": "font/Nunito-Black.ttf",
              "Plist": ""
            },
            "TextColor": {},
            "DisabledFileData": {
              "Type": "Default",
              "Path": "Default/Button_Disable.png",
              "Plist": ""
            },
            "Scale9Enable": true,
            "Scale9OriginX": 15,
            "Scale9OriginY": 6,
            "Scale9Width": 314,
            "Scale9Height": 53,
            "OutlineColor": {
              "G": 0,
              "B": 0
            },
            "ShadowColor": {
              "R": 110,
              "G": 110,
              "B": 110
            },
            "ShadowOffsetX": 2.0,
            "ShadowOffsetY": -2.0,
            "TouchEnable": true,
            "AnchorPoint": {
              "ScaleX": 0.5,
              "ScaleY": 0.5
            },
            "Position": {
              "X": 400.0,
              "Y": 50.0
            },
            "Scale": {
              "ScaleX": 1.0,
              "ScaleY": 1.0
            },
            "CColor": {},
            "IconVisible": false,
            "PrePosition": {
              "X": 0.2083,
              "Y": 0.0463
            },
            "PreSize": {
              "X": 0.4167,
              "Y": 0.0926
            },
            "RightMargin": 1120.0,
            "TopMargin": 980.0,
            "Tag": 26,
            "ActionTag": -85907924,
            "Size": {
              "X": 800.0,
              "Y": 100.0
            },
            "Name": "btnExit",
            "ctype": "ButtonObjectData"
          },
          {
            "FontSize": 48,
            "ButtonText": "Continue",
            "FontResource": {
              "Type": "Normal",
              "Path": "font/Nunito-Black.ttf",
              "Plist": ""
            },
            "TextColor": {},
            "DisabledFileData": {
              "Type": "Default",
              "Path": "Default/Button_Disable.png",
              "Plist": ""
            },
            "Scale9Enable": true,
            "Scale9OriginX": 15,
            "Scale9OriginY": 6,
            "Scale9Width": 179,
            "Scale9Height": 53,
            "OutlineColor": {
              "G": 0,
              "B": 0
            },
            "ShadowColor": {
              "R": 110,
              "G": 110,
              "B": 110
            },
            "ShadowOffsetX": 2.0,
            "ShadowOffsetY": -2.0,
            "TouchEnable": true,
            "AnchorPoint": {
              "ScaleX": 0.5,
              "ScaleY": 0.5
            },
            "Position": {
              "X": 400.0,
              "Y": 150.0
            },
            "Scale": {
              "ScaleX": 1.0,
              "ScaleY": 1.0
            },
            "CColor": {},
            "IconVisible": false,
            "PrePosition": {
              "X": 0.2083,
              "Y": 0.1389
            },
            "PreSize": {
              "X": 0.4167,
              "Y": 0.0926
            },
            "RightMargin": 1120.0,
            "TopMargin": 880.0,
            "BottomMargin": 100.0,
            "Tag": 52,
            "ActionTag": -957984882,
            "Size": {
              "X": 800.0,
              "Y": 100.0
            },
            "Name": "btnContinue",
            "ctype": "ButtonObjectData"
          }
        ],
        "Size": {
          "X": 1920.0,
          "Y": 1080.0
        },
        "Name": "Scene",
        "ctype": "SingleNodeObjectData"
      },
      "UsedResources": [
        "../../Default/Button_Disable.png",
        "../../font/Nunito-Black.ttf",
        "../../sprites/character/blue_shooter.png",
        "../../sprites/character/cyan_shooter.png",
        "../../sprites/character/pinky_shooter.png",
        "../../sprites/grenade/grenade.png",
        "../../sprites/gun/gun_awm.png",
        "../../sprites/gun/gun_desert_eagle.png",
        "../../sprites/gun/gun_steyr_tmp.png"
      ],
      "ctype": "GameFileData"
    }
  },
  "Type": "Scene"
}