{
  "ID": "27a6e570-2e95-40ee-8e9b-29068058e1e2",
  "Version": "3.10.0.0",
  "Name": "GuiResult",
  "Content": {
    "Content": {
      "Animation": {
        "Duration": 0,
        "Speed": 1.0,
        "Timelines": [],
        "ctype": "TimelineActionData"
      },
      "AnimationList": [],
      "ObjectData": {
        "Tag": 125,
        "Children": [
          {
            "ClipAble": false,
            "BackColorAlpha": 127,
            "ComboBoxIndex": 1,
            "SingleColor": {
              "R": 0,
              "G": 0,
              "B": 0
            },
            "FirstColor": {
              "R": 150,
              "G": 200
            },
            "EndColor": {},
            "ColorVector": {
              "ScaleY": 1.0
            },
            "Scale9Width": 1,
            "Scale9Height": 1,
            "TouchEnable": true,
            "AnchorPoint": {},
            "Position": {
              "X": -0.0001,
              "Y": 1.9751
            },
            "Scale": {
              "ScaleX": 1.0,
              "ScaleY": 1.0
            },
            "CColor": {},
            "IconVisible": false,
            "PrePosition": {
              "X": 0.0,
              "Y": 0.0018
            },
            "PercentWidthEnable": true,
            "PercentHeightEnable": true,
            "PercentWidthEnabled": true,
            "PercentHeightEnabled": true,
            "PreSize": {
              "X": 1.0,
              "Y": 1.0
            },
            "LeftMargin": -0.0001,
            "RightMargin": 0.0001,
            "TopMargin": -1.9751,
            "BottomMargin": 1.9751,
            "Tag": 126,
            "ActionTag": -1008826042,
            "Size": {
              "X": 1920.0,
              "Y": 1080.0
            },
            "Name": "pnFog",
            "ctype": "PanelObjectData"
          }
        ],
        "Size": {
          "X": 1920.0,
          "Y": 1080.0
        },
        "Name": "Scene",
        "ctype": "SingleNodeObjectData"
      },
      "UsedResources": [],
      "ctype": "GameFileData"
    }
  },
  "Type": "Scene"
}